<?xml version="1.0" encoding="UTF-8" standalone="no"?>
<!-- Created with Inkscape (http://www.inkscape.org/) -->

<svg
   width="200.29941mm"
   height="158.30589mm"
   viewBox="0 0 200.29941 158.30589"
   version="1.1"
   id="svg1"
   inkscape:version="1.3.2 (091e20ef0f, 2023-11-25, custom)"
   sodipodi:docname="principe_borne_inf.svg"
   xmlns:inkscape="http://www.inkscape.org/namespaces/inkscape"
   xmlns:sodipodi="http://sodipodi.sourceforge.net/DTD/sodipodi-0.dtd"
   xmlns="http://www.w3.org/2000/svg"
   xmlns:svg="http://www.w3.org/2000/svg">
  <sodipodi:namedview
     id="namedview1"
     pagecolor="#ffffff"
     bordercolor="#666666"
     borderopacity="1.0"
     inkscape:showpageshadow="2"
     inkscape:pageopacity="0.0"
     inkscape:pagecheckerboard="0"
     inkscape:deskcolor="#d1d1d1"
     inkscape:document-units="mm"
     inkscape:zoom="1.102876"
     inkscape:cx="523.17759"
     inkscape:cy="415.73124"
     inkscape:current-layer="g29" />
  <defs
     id="defs1" />
  <g
     inkscape:label="Layer 1"
     inkscape:groupmode="layer"
     id="layer1"
     transform="translate(-4.6660828,-30.89555)">
    <g
       id="g29">
      <path
         style="fill:#000000;stroke-width:0.79375;stroke-linecap:round;stroke-linejoin:round"
         id="path1"
         d="m 62.298362,107.25983 c -0.174699,1.55816 -0.122997,3.12781 0.03631,4.68396 0.07254,0.70337 1.067263,0.60079 0.994725,-0.10259 v 0 c -0.154276,-1.48422 -0.202877,-2.98176 -0.03747,-4.46814 0.08007,-0.70256 -0.913506,-0.81579 -0.993569,-0.11323 z" />
      <path
         style="fill:#000000;stroke-width:0.79375;stroke-linecap:round;stroke-linejoin:round"
         id="path2"
         d="m 60.477849,108.71786 c 1.448678,0.19975 2.911017,0.19262 4.367646,0.11347 0.706052,-0.0386 0.651415,-1.03714 -0.05464,-0.9985 v 0 c -1.391973,0.0767 -2.789449,0.085 -4.174006,-0.10527 -0.700243,-0.0983 -0.839245,0.89201 -0.139004,0.9903 z" />
      <path
         style="fill:#000000;stroke-width:0.79375;stroke-linecap:round;stroke-linejoin:round"
         id="path3"
         d="m 55.876036,117.32853 c -1.35178,0.23713 -3.114011,0.9626 -3.333546,2.53492 -0.04155,0.2976 0.06302,0.59766 0.09453,0.8965 0.16737,0.23966 0.285758,0.5224 0.502107,0.71897 0.662054,0.60155 1.63194,0.59691 2.370249,0.15277 0.575045,-0.34593 0.658715,-0.63462 0.984885,-1.17998 0.249063,-0.59823 0.316383,-1.22223 0.29646,-1.86303 -0.0038,-0.12153 -0.02043,-0.24232 -0.02923,-0.36359 -0.0026,-0.0352 0.02857,-0.11698 -0.0049,-0.10572 -0.315357,0.1062 -0.605785,0.27558 -0.908677,0.41336 0.512339,2.57988 0.299714,5.22527 0.119507,7.82781 -0.04904,0.59647 -0.105662,1.31984 -0.164489,1.93165 -0.03521,0.36613 -0.0076,0.26009 -0.05382,0.42237 -0.15076,0.69084 0.826246,0.90405 0.977005,0.2132 v 0 c 0.163042,-0.82019 0.119521,-1.67305 0.238924,-2.49822 0.187677,-2.71692 0.403307,-5.48068 -0.155217,-8.17019 -0.350677,-0.0303 -0.70045,-0.10797 -1.052031,-0.091 -0.025,10e-4 0.02008,0.13745 0.0329,0.42461 0.0208,0.46575 -0.01154,0.92684 -0.168955,1.37015 -0.07008,0.13989 -0.122269,0.29027 -0.210224,0.41967 -0.463931,0.68253 -1.207646,0.80403 -1.78919,0.20662 -0.04382,-0.1363 -0.130987,-0.26573 -0.131455,-0.4089 -0.0037,-1.12536 1.577051,-1.69424 2.46667,-1.85526 0.704753,-0.0577 0.623208,-1.05432 -0.08154,-0.99667 z" />
      <path
         style="fill:#000000;stroke-width:0.79375;stroke-linecap:round;stroke-linejoin:round"
         id="path4"
         d="m 131.9088,117.62693 c -0.19929,0.10598 -0.42543,0.17228 -0.59787,0.31794 -0.84041,0.7099 -1.79825,2.57855 -0.24605,3.20686 0.35583,0.14403 0.76747,0.0209 1.1512,0.0314 0.34828,-0.15281 0.72779,-0.24839 1.04485,-0.45844 0.92918,-0.61557 1.49978,-1.65951 1.14572,-2.77493 -0.2324,-0.73212 -0.63005,-0.95305 -1.16436,-1.40686 -0.551,-0.44317 -1.17774,0.33606 -0.62674,0.77923 v 0 c 0.40923,0.30223 0.99095,0.70677 0.95694,1.30701 -0.0451,0.79626 -0.78742,1.26332 -1.42039,1.55604 -0.20362,0.0538 -0.76778,0.23171 -0.84218,0.15305 -0.33312,-0.35219 0.22783,-1.28094 0.48009,-1.51563 0.12357,-0.11497 0.29393,-0.166 0.4409,-0.24901 0.66942,-0.22776 0.34731,-1.17446 -0.32211,-0.9467 z" />
      <path
         style="fill:#000000;stroke-width:0.79375;stroke-linecap:round;stroke-linejoin:round"
         id="path5"
         d="m 156.66518,97.307894 c -1.09634,1.047324 -2.13714,2.777236 -1.04538,4.228876 0.21623,0.2875 0.55378,0.45932 0.83068,0.68897 0.40421,0.0391 0.81027,0.17227 1.21263,0.11731 1.44269,-0.19707 2.51733,-1.66703 2.28292,-3.087691 -0.0443,-0.268256 -0.19605,-0.507193 -0.29407,-0.760788 -0.28523,-0.647028 -1.20027,-0.24365 -0.91504,0.403378 v 0 c 0.0698,0.127093 0.17026,0.241663 0.2094,0.381281 0.25815,0.92107 -0.41351,1.78277 -1.26384,2.06401 -0.20207,0.0668 -0.42219,0.0544 -0.63329,0.0815 -0.17743,-0.10994 -0.38544,-0.18147 -0.53228,-0.32982 -0.9381,-0.94771 0.0464,-2.277383 0.75718,-2.993827 0.56091,-0.430565 -0.048,-1.223804 -0.60891,-0.793239 z" />
      <path
         style="fill:#000000;stroke-width:0.79375;stroke-linecap:round;stroke-linejoin:round"
         id="path6"
         d="m 143.33535,77.702716 c -0.39787,1.360972 -0.53015,3.659603 1.30967,4.050347 0.29525,0.06271 0.60256,-0.03653 0.90384,-0.05479 0.2522,-0.162954 0.54935,-0.271589 0.7566,-0.488863 0.67679,-0.709541 0.65681,-1.75089 0.30558,-2.600322 -0.10045,-0.242927 -0.2717,-0.450101 -0.40756,-0.67515 -0.38039,-0.596072 -1.22336,-0.05812 -0.84297,0.537956 v 0 c 0.39369,0.567581 0.76311,1.260276 0.34375,1.938417 -0.0725,0.11716 -0.19174,0.197829 -0.28762,0.296743 -0.1324,0.03958 -0.25915,0.11258 -0.3972,0.118756 -1.26344,0.05652 -0.95769,-2.082911 -0.74466,-2.78034 0.24236,-0.664276 -0.69707,-1.007023 -0.93943,-0.342749 z" />
      <path
         style="fill:#000000;stroke-width:0.79375;stroke-linecap:round;stroke-linejoin:round"
         id="path7"
         d="m 121.94588,69.733728 c -0.0942,0.227314 -0.2505,0.437983 -0.2826,0.68194 -0.1693,1.286851 0.70264,2.931488 2.19573,2.794664 0.3083,-0.02825 0.57353,-0.233336 0.8603,-0.350002 0.81855,-1.1943 0.65492,-1.422749 -0.004,-2.589863 -0.37761,-0.597837 -1.22308,-0.06382 -0.84548,0.534022 v 0 c 0.28852,0.375655 0.51508,0.668234 0.39371,1.165497 -0.22578,0.1822 -0.38598,0.403879 -0.73556,0.286266 -0.52153,-0.175466 -0.9794,-0.925327 -0.93767,-1.466786 0.0146,-0.189124 0.13735,-0.35364 0.20602,-0.530461 0.37143,-0.601697 -0.4795,-1.126974 -0.85093,-0.525277 z" />
      <path
         style="fill:#000000;stroke-width:0.79375;stroke-linecap:round;stroke-linejoin:round"
         id="path8"
         d="m 124.81602,77.841159 c -0.071,1.248421 -0.0619,2.497953 -0.0336,3.747297 0.0161,0.706924 1.01586,0.684125 0.99974,-0.02281 v 0 c -0.0283,-1.227687 -0.0368,-2.455555 0.033,-3.682341 0.0298,-0.706477 -0.9693,-0.748636 -0.99912,-0.04216 z" />
      <path
         style="fill:#000000;stroke-width:0.79375;stroke-linecap:round;stroke-linejoin:round"
         id="path9"
         d="m 126.24359,88.228 c 0.15559,0.921993 0.0751,0.45648 0.24163,1.396499 0.12335,0.696265 1.10802,0.521828 0.98467,-0.174437 v 0 c -0.16472,-0.929711 -0.0851,-0.469161 -0.23911,-1.381617 -0.11282,-0.698047 -1.10001,-0.538493 -0.98719,0.159555 z" />
      <path
         style="fill:#000000;stroke-width:0.79375;stroke-linecap:round;stroke-linejoin:round"
         id="path10"
         d="m 127.95843,96.318011 c -0.0165,1.112414 -0.0278,2.224868 -0.0308,3.337395 -0.002,0.707104 0.99804,0.709874 0.99999,0.0028 v 0 c 0.003,-1.110229 0.0144,-2.220378 0.0308,-3.330493 0.007,-0.707075 -0.99312,-0.716741 -0.99996,-0.0097 z" />
      <path
         style="fill:#000000;stroke-width:0.79375;stroke-linecap:round;stroke-linejoin:round"
         id="path11"
         d="m 129.7834,106.21205 c 0.0136,0.90656 0.12464,1.80754 0.22363,2.70748 0.0774,0.70285 1.07141,0.59335 0.99399,-0.1095 v 0 c -0.0961,-0.87106 -0.20468,-1.74313 -0.21788,-2.62065 -0.016,-0.70693 -1.01577,-0.68426 -0.99974,0.0227 z" />
      <path
         style="fill:#000000;stroke-width:0.79375;stroke-linecap:round;stroke-linejoin:round"
         id="path12"
         d="m 138.98129,117.13954 c 0.65316,-0.38915 1.30033,-0.78819 1.94766,-1.1869 0.60207,-0.37084 0.0776,-1.22229 -0.52444,-0.85145 v 0 c -0.64317,0.39617 -1.28618,0.79266 -1.93514,1.17931 -0.60743,0.36198 -0.0955,1.22102 0.51192,0.85904 z" />
      <path
         style="fill:#000000;stroke-width:0.79375;stroke-linecap:round;stroke-linejoin:round"
         id="path13"
         d="m 146.10546,112.21117 c 0.97698,-0.57436 1.87724,-1.26283 2.76267,-1.96664 0.55339,-0.44018 -0.0691,-1.2228 -0.62251,-0.78262 v 0 c -0.84748,0.67457 -1.7089,1.33488 -2.64414,1.88555 -0.61074,0.35636 -0.10676,1.22008 0.50398,0.86371 z" />
      <path
         style="fill:#000000;stroke-width:0.79375;stroke-linecap:round;stroke-linejoin:round"
         id="path14"
         d="m 153.07759,106.58914 c 0.75821,-0.44006 1.46824,-0.95367 2.17778,-1.46639 0.57297,-0.41437 -0.013,-1.22468 -0.58601,-0.81031 v 0 c -0.68957,0.49911 -1.3799,0.99865 -2.11752,1.42605 -0.60149,0.37176 -0.0757,1.2224 0.52575,0.85065 z" />
      <path
         style="fill:#000000;stroke-width:0.79375;stroke-linecap:round;stroke-linejoin:round"
         id="path15"
         d="m 146.48621,83.886626 c 0.35078,0.735889 0.74286,1.44952 1.13787,2.162159 0.34297,0.618363 1.21747,0.133337 0.8745,-0.485026 v 0 c -0.38656,-0.696539 -0.76973,-1.394306 -1.11272,-2.113756 -0.30874,-0.636143 -1.20839,-0.199522 -0.89965,0.436623 z" />
      <path
         style="fill:#000000;stroke-width:0.79375;stroke-linecap:round;stroke-linejoin:round"
         id="path16"
         d="m 151.09084,92.217157 c 0.71158,0.839433 1.46421,1.639903 2.14307,2.506464 0.43666,0.55617 1.22321,-0.06136 0.78654,-0.617535 v 0 c -0.67895,-0.863021 -1.42303,-1.66705 -2.13802,-2.499992 -0.43209,-0.559734 -1.22367,0.05133 -0.79159,0.611063 z" />
      <path
         style="fill:#000000;stroke-width:0.79375;stroke-linecap:round;stroke-linejoin:round"
         id="path17"
         d="m 127.52725,73.38701 c 0.93889,0.417007 0.45449,0.195032 1.45198,0.668568 0.63884,0.303122 1.06752,-0.600332 0.42869,-0.903457 v 0 c -1.03135,-0.48913 -0.5284,-0.258961 -1.50773,-0.692968 -0.65609,-0.263705 -1.02903,0.664152 -0.37294,0.927857 z" />
      <path
         style="fill:#000000;stroke-width:0.79375;stroke-linecap:round;stroke-linejoin:round"
         id="path18"
         d="m 135.4414,77.201878 c 0.67025,0.438375 0.32818,0.208182 1.02508,0.692224 0.58089,0.403201 1.1511,-0.418295 0.57022,-0.821497 v 0 c -0.73167,-0.507539 -0.37023,-0.26475 -1.08338,-0.72976 -0.60743,-0.361982 -1.11935,0.497051 -0.51192,0.859033 z" />
      <path
         style="fill:#000000;stroke-width:0.79375;stroke-linecap:round;stroke-linejoin:round"
         id="path19"
         d="m 128.16578,76.371695 c 1.50507,1.009706 2.82003,2.250115 4.07012,3.55337 1.71551,1.839024 3.43936,3.666046 5.04891,5.599367 1.12642,1.363995 2.0809,2.84785 2.60335,4.550476 0.30435,0.991848 0.34453,1.507746 0.49862,2.525432 0.19144,1.657408 0.16812,3.332924 -0.0961,4.980918 -0.17194,1.072341 -0.31549,1.573861 -0.57007,2.620432 -0.60641,2.28744 -1.44754,4.50395 -2.3102,6.70468 -0.57735,1.39529 -1.13542,2.81637 -1.98723,4.07137 -0.63668,0.8258 -1.24396,1.671 -1.76605,2.57424 -0.13236,0.26702 -0.25573,0.52868 -0.47088,0.73616 -0.4802,0.51905 0.25385,1.19815 0.73405,0.6791 v 0 c 0.24603,-0.28061 0.45591,-0.56814 0.603,-0.91551 0.5089,-0.88376 1.10961,-1.7047 1.72852,-2.51421 0.88789,-1.31977 1.49152,-2.79842 2.08964,-4.26626 0.87881,-2.24284 1.73522,-4.5019 2.35092,-6.83364 0.26408,-1.089752 0.41362,-1.613352 0.59056,-2.732182 0.27511,-1.739617 0.2977,-3.507714 0.0923,-5.25635 -0.17148,-1.109798 -0.21202,-1.641033 -0.55077,-2.725269 -0.56433,-1.806282 -1.57387,-3.389331 -2.77126,-4.839314 -1.62512,-1.95094 -3.36368,-3.796329 -5.09591,-5.651926 -1.29666,-1.349933 -2.66075,-2.634607 -4.2203,-3.681661 -0.58038,-0.403932 -1.15163,0.416846 -0.57125,0.820777 z" />
      <path
         style="fill:#000000;stroke-width:0.79375;stroke-linecap:round;stroke-linejoin:round"
         id="path20"
         d="m 125.64075,176.09742 c 0.26409,-5.7682 -0.2513,-11.53975 -0.6275,-17.29128 -1.689,-24.79456 -3.00952,-49.6126 -4.49577,-74.419884 -0.73864,-11.80446 -1.4226,-23.61399 -2.42595,-35.39992 -0.35279,-4.14467 -0.78731,-8.738488 -1.3242,-12.914765 -0.1377,-1.071315 -0.32148,-2.136214 -0.48215,-3.204319 -0.20841,1.078355 -0.0736,-2.190079 -0.73198,-1.960065 -0.40428,0.141281 -0.60753,0.603713 -0.91131,0.90557 -0.12322,0.696291 0.86148,0.870552 0.9847,0.174261 v 0 c -0.23271,-0.09967 -0.48273,-0.166004 -0.69814,-0.298997 -0.0326,-0.02009 0.0263,-0.07177 0.0395,-0.107714 0.10946,0.478613 0.21897,0.957218 0.32846,1.435817 0.15924,1.056683 0.34128,2.110173 0.47759,3.170051 0.53575,4.165617 0.96879,8.744271 1.32075,12.878501 1.00289,11.77976 1.68635,23.58311 2.42466,35.38137 1.48635,24.809114 2.80697,49.628974 4.49612,74.425364 0.37446,5.72387 0.88882,11.46769 0.62552,17.20818 -0.0126,0.707 0.98725,0.72482 0.99984,0.0178 z" />
      <circle
         style="fill:none;stroke:#000000;stroke-width:0.79375;stroke-linecap:round;stroke-linejoin:round"
         id="path21"
         cx="62.919365"
         cy="108.41666"
         r="57.856407" />
      <path
         style="fill:#000000;stroke:none;stroke-width:0.79375;stroke-linecap:round;stroke-linejoin:round"
         id="path22"
         d="m 73.224609,107.87161 c 4.448431,-0.48276 8.928224,-0.61685 13.395753,-0.82044 10.082133,-0.43139 20.131448,-1.36598 30.155268,-2.50553 1.35136,-0.11628 2.68494,-0.36565 4.03173,-0.51551 0.70273,-0.0785 0.59169,-1.07233 -0.11104,-0.99382 v 0 c -1.3473,0.15112 -2.68198,0.39663 -4.03365,0.51574 -10.0014,1.13709 -20.028236,2.06977 -30.087832,2.50016 -4.494924,0.20484 -9.002212,0.33988 -13.477745,0.82757 -0.701337,0.0902 -0.573821,1.082 0.127516,0.99183 z" />
      <path
         style="fill:#000000;stroke:none;stroke-width:0.79375;stroke-linecap:round;stroke-linejoin:round"
         id="path23"
         d="m 116.06241,104.16749 c 0.25008,1.53512 0.50381,3.07998 0.49949,4.63925 -0.0424,0.46652 -0.39363,1.57597 0.9312,1.04483 0.84404,-0.32365 1.73314,-0.50586 2.61516,-0.69178 0.59369,-0.1388 1.20432,-0.18326 1.80246,-0.29335 0.69446,-0.1331 0.50623,-1.11523 -0.18823,-0.98213 v 0 c -0.60081,0.1237 -1.224,0.14419 -1.82053,0.29699 -0.96791,0.20412 -1.94573,0.40421 -2.86457,0.78014 -0.53604,0.29887 -0.58653,0.18933 0.32567,0.89762 0.0456,0.0354 0.0525,-0.10321 0.0716,-0.15769 0.1,-0.28496 0.10041,-0.59766 0.12721,-0.8936 -8e-4,-1.61865 -0.24978,-3.22264 -0.51506,-4.81607 -0.12431,-0.6961 -1.10874,-0.5203 -0.98443,0.17579 z" />
      <path
         style="fill:#000000;stroke:none;stroke-width:0.79375;stroke-linecap:round;stroke-linejoin:round"
         id="path24"
         d="m 74.943548,99.886705 c 0.388978,-0.06192 0.774764,-0.14913 1.166932,-0.185761 4.135464,-0.3863 8.31638,-0.443611 12.462896,-0.623612 6.726738,-0.29201 4.693518,-0.201055 11.675244,-0.582854 4.45366,-0.27102 5.25066,-0.312581 9.3684,-0.585687 1.3975,-0.09269 2.84949,-0.2561 4.25996,-0.248091 0.7071,0.0024 0.71048,-0.997609 0.003,-0.999996 v 0 c -1.43808,-0.0019 -2.89912,0.155411 -4.32794,0.250177 -4.11309,0.272804 -4.91008,0.314378 -9.35841,0.585092 -6.973434,0.381399 -4.940563,0.290427 -11.662588,0.582239 -4.184989,0.181674 -8.405855,0.237244 -12.579083,0.635315 -0.414263,0.03951 -0.821701,0.132355 -1.232548,0.198533 -0.689179,0.158226 -0.465415,1.13287 0.223761,0.974645 z" />
      <path
         style="fill:#000000;stroke:none;stroke-width:0.79375;stroke-linecap:round;stroke-linejoin:round"
         id="path25"
         d="m 111.08683,94.746388 c 1.71035,0.820605 3.53332,1.42027 5.13069,2.459199 0.0599,0.06968 0.15366,0.120925 0.1797,0.209045 0.0186,0.06286 -0.0946,-0.154784 -0.36346,0.01921 -0.19922,0.128928 -0.36642,0.301939 -0.557,0.443327 -0.5588,0.414571 -0.91362,0.630958 -1.49788,1.009158 -0.856,0.55131 -0.45652,0.294021 -1.19849,0.771896 -0.59447,0.382877 -0.053,1.223597 0.54148,0.840717 v 0 c 0.74275,-0.47838 0.34244,-0.22055 1.20075,-0.773357 0.72859,-0.472432 2.52382,-1.486898 2.74238,-2.378414 0.1196,-0.487899 -0.23319,-0.711258 -0.50486,-0.981551 -1.63411,-1.049343 -3.47228,-1.693103 -5.22444,-2.512817 -0.63187,-0.317396 -1.08074,0.576199 -0.44887,0.893599 z" />
      <path
         style="fill:#000000;stroke:none;stroke-width:0.79375;stroke-linecap:round;stroke-linejoin:round"
         id="path26"
         d="m 74.166711,95.253229 c -0.985735,0.736272 -1.897521,1.56369 -2.758872,2.441088 -0.49544,0.504669 -1.151747,1.18636 -1.530075,1.808859 -0.139366,0.229309 -0.21781,0.490492 -0.326715,0.735734 0.01873,0.2496 -0.05013,0.52222 0.05623,0.74879 0.401423,0.8551 1.543886,0.98504 2.328159,1.19625 1.113102,0.29976 0.710043,0.18481 1.73546,0.50312 0.675394,0.20938 0.971513,-0.74577 0.296119,-0.95516 v 0 c -0.864537,-0.2677 -1.737408,-0.48811 -2.608339,-0.7322 -0.180454,-0.0506 -0.355542,-0.1197 -0.537057,-0.16633 -0.07547,-0.0194 -0.164462,0.008 -0.231693,-0.0312 -0.06038,-0.0354 -0.0786,-0.11581 -0.117895,-0.17371 0.374859,-0.952127 0.913921,-1.483218 1.63369,-2.217984 0.825786,-0.842992 1.699874,-1.638186 2.645281,-2.345756 0.573847,-0.413158 -0.01045,-1.224701 -0.584295,-0.811541 z" />
      <path
         style="fill:#000000;stroke:none;stroke-width:0.79375;stroke-linecap:round;stroke-linejoin:round"
         id="path28"
         d="m 89.783414,88.225931 c -1.424028,0.156374 -4.796253,2.273813 -2.704278,3.866549 0.341773,0.26021 0.81933,0.258408 1.228993,0.387614 1.71069,-0.116265 0.90098,0.02455 2.435145,-0.386244 0.681736,-0.187719 0.416261,-1.151837 -0.265475,-0.964117 v 0 c -1.250272,0.355576 -0.608433,0.226644 -1.926812,0.380298 -0.249259,-0.03576 -0.499039,-0.06806 -0.747776,-0.107275 -0.139081,-0.02193 -0.359299,0.05299 -0.41548,-0.07611 -0.08171,-0.187769 0.01934,-0.42424 0.120181,-0.602469 0.505558,-0.893479 1.492763,-1.291913 2.43331,-1.510776 0.698246,-0.111586 0.540438,-1.099056 -0.157808,-0.987467 z" />
      <path
         style="fill:#000000;stroke:none;stroke-width:0.79375;stroke-linecap:round;stroke-linejoin:round"
         id="path29"
         d="m 89.328888,78.990186 c -0.445598,3.821589 -0.120803,7.667242 0.156957,11.487275 0.05915,1.14483 0.179051,2.281682 0.402576,3.4052 0.139407,0.69323 1.11978,0.496081 0.980374,-0.197149 v 0 c -0.220088,-1.081484 -0.324416,-2.178394 -0.385585,-3.280582 -0.273055,-3.754109 -0.596781,-7.533476 -0.1622,-11.289474 0.08858,-0.701537 -0.903544,-0.826807 -0.992122,-0.12527 z" />
      <path
         style="fill:#000000;stroke:none;stroke-width:0.79375;stroke-linecap:round;stroke-linejoin:round"
         id="path31"
         d="m 123.57257,56.584317 c 0.18339,2.486346 0.25593,4.97794 0.35185,7.468503 0.0272,0.706583 1.02647,0.668094 0.99925,-0.03849 v 0 c -0.0961,-2.495995 -0.16889,-4.993026 -0.3526,-7.484801 -0.0387,-0.706046 -1.03724,-0.651258 -0.9985,0.05479 z" />
      <path
         style="fill:#000000;stroke:none;stroke-width:0.79375;stroke-linecap:round;stroke-linejoin:round"
         id="path32"
         d="m 124.15916,56.690331 c 0.85186,-0.350661 2.31702,-0.496388 2.89493,0.430167 0.0633,0.1015 0.0525,0.233418 0.0787,0.350129 -0.0417,0.08475 -0.0616,0.184293 -0.12501,0.254246 -0.36093,0.397941 -1.15711,0.595799 -1.66505,0.673751 -0.69709,0.118578 -0.5294,1.104418 0.16769,0.985837 v 0 c 0.92618,-0.168696 2.08024,-0.493522 2.4804,-1.476184 0.10148,-0.249227 0.0483,-0.536028 0.0724,-0.804043 -0.11608,-0.244713 -0.17997,-0.52189 -0.34822,-0.734142 -0.96718,-1.220131 -2.80792,-1.092059 -4.07308,-0.535641 -0.6052,0.365699 -0.088,1.221579 0.51717,0.85588 z" />
      <path
         style="fill:#000000;stroke:none;stroke-width:0.79375;stroke-linecap:round;stroke-linejoin:round"
         id="path33"
         d="m 129.49627,58.300331 c -0.69959,0.957548 -1.27458,2.493917 -0.16891,3.419644 0.20469,0.171379 0.47747,0.238961 0.7162,0.358444 0.28188,-0.0097 0.57273,0.04221 0.84565,-0.02898 0.76937,-0.200689 1.45173,-0.970229 1.53579,-1.766877 0.0829,-0.785407 -0.16004,-1.005474 -0.50914,-1.652577 -0.17933,-0.186478 -0.35866,-0.372956 -0.538,-0.559435 -0.5006,-0.499393 -1.20685,0.208574 -0.70624,0.707965 v 0 c 0.12751,0.119626 0.25502,0.239249 0.38254,0.358873 0.17405,0.256939 0.40726,0.510336 0.41626,0.847193 0.0161,0.603012 -0.49816,1.057854 -1.03788,1.172585 -0.11623,-0.03039 -0.24132,-0.03725 -0.34866,-0.09117 -0.84031,-0.422074 -0.17621,-1.629701 0.18963,-2.13646 0.44491,-0.549587 -0.33232,-1.178798 -0.77724,-0.629211 z" />
      <path
         style="fill:#000000;stroke:none;stroke-width:0.79375;stroke-linecap:round;stroke-linejoin:round"
         id="path34"
         d="m 149.68636,70.337155 c 0.12465,2.319658 0.1999,4.635289 0.53278,6.936748 0.0459,0.246594 0.0917,0.493186 0.13763,0.73978 0.12971,0.695108 1.11274,0.511675 0.98303,-0.183433 v 0 c -0.0437,-0.233304 -0.0873,-0.466611 -0.13102,-0.699915 -0.33128,-2.276512 -0.39822,-4.567963 -0.52482,-6.862461 -0.049,-0.705408 -1.04659,-0.636124 -0.9976,0.06928 z" />
      <path
         style="fill:#000000;stroke:none;stroke-width:0.79375;stroke-linecap:round;stroke-linejoin:round"
         id="path35"
         d="m 150.11179,70.349011 c 0.1425,-0.120626 0.26771,-0.265311 0.4275,-0.361878 0.62946,-0.380424 1.8266,-0.777015 2.48017,-0.222473 0.0696,0.05906 0.0845,0.161835 0.12674,0.242753 -0.37684,0.414028 -0.88766,0.605679 -1.39659,0.801605 -0.65562,0.264877 -0.28103,1.192067 0.37459,0.92719 v 0 c 0.72901,-0.305112 1.68942,-0.650472 1.8845,-1.551818 0.0578,-0.266964 -0.0613,-0.542846 -0.0919,-0.814266 -0.17008,-0.175829 -0.30429,-0.395454 -0.51023,-0.527484 -1.05005,-0.673205 -2.57305,-0.231301 -3.52581,0.391912 -0.2094,0.136969 -0.37257,0.33411 -0.55885,0.501166 -0.43367,0.558511 0.35619,1.171805 0.78985,0.613293 z" />
      <path
         style="fill:#000000;stroke:none;stroke-width:0.79375;stroke-linecap:round;stroke-linejoin:round"
         id="path36"
         d="m 155.91719,74.384931 c 0.53694,-0.395028 0.92487,-0.934405 1.35455,-1.432243 0.0692,-0.08023 0.18284,-0.129034 0.22214,-0.227457 0.03,-0.07509 -0.11194,0.132604 -0.19101,0.149506 -0.1128,0.0241 -0.2295,-0.02339 -0.34426,-0.03507 0.13789,0.497112 0.29204,0.989502 0.43839,1.484183 0.20061,0.67805 1.15952,0.394332 0.9589,-0.283718 v 0 c -0.16068,-0.543023 -0.32258,-1.085663 -0.49232,-1.625944 -0.19376,-0.179745 -0.33197,-0.451538 -0.58129,-0.539234 -0.46487,-0.163518 -0.92583,0.63705 -1.13324,0.878646 -0.40555,0.472393 -0.38612,0.43003 -0.83184,0.831324 -0.5657,0.424257 0.0343,1.224267 0.59998,0.80001 z" />
      <path
         style="fill:#000000;stroke:none;stroke-width:0.79375;stroke-linecap:round;stroke-linejoin:round"
         id="path37"
         d="m 164.21331,105.23643 c -0.0597,0.25719 -0.13599,0.51107 -0.17894,0.77156 -0.14447,0.87605 -0.22478,2.02088 -0.27532,2.88321 -0.0736,1.25661 -0.0938,2.50808 -0.0659,3.76578 0.0159,0.70693 1.01568,0.68439 0.99974,-0.0225 v 0 c -0.0535,-2.33618 0.014,-4.70517 0.44036,-7.00595 0.27723,-0.65049 -0.6427,-1.04255 -0.91994,-0.39206 z" />
      <path
         style="fill:#000000;stroke:none;stroke-width:0.79375;stroke-linecap:round;stroke-linejoin:round"
         id="path38"
         d="m 162.77673,104.62852 c 0.75125,-0.3633 2.16632,-0.76618 2.92768,-0.24511 0.0631,0.0432 0.0795,0.13073 0.11922,0.19609 -0.0573,0.0153 -0.12136,0.015 -0.17202,0.0459 -0.24023,0.14655 -0.43093,0.36461 -0.66807,0.51611 -0.38163,0.24383 -0.56065,0.31164 -0.95792,0.49524 -0.64075,0.29907 -0.21781,1.20523 0.42294,0.90616 v 0 c 0.74557,-0.35091 2.01128,-0.93625 2.20018,-1.8418 0.0561,-0.26885 -0.071,-0.54466 -0.1065,-0.817 -0.16572,-0.14695 -0.30445,-0.33169 -0.49717,-0.44086 -1.1093,-0.62841 -2.78761,-0.17726 -3.83698,0.3627 -0.58165,0.40209 -0.013,1.22468 0.56864,0.82259 z" />
      <path
         style="fill:#000000;stroke:none;stroke-width:0.79375;stroke-linecap:round;stroke-linejoin:round"
         id="path39"
         d="m 168.64702,107.83521 c -0.0296,-0.27507 0.6297,-0.0914 0.35139,-0.006 -0.0548,0.0169 -0.12417,-0.041 -0.17166,-0.009 -0.0761,0.0514 -0.10247,0.15247 -0.15376,0.22867 -0.10438,0.15504 -0.20884,0.31003 -0.31326,0.46504 -0.51179,0.69655 -1.22956,1.72109 -0.0185,2.27581 0.54137,0.24797 1.43388,0.085 1.97548,0.0333 0.28225,-0.0541 0.5645,-0.10811 0.84675,-0.16217 0.69419,-0.13456 0.50389,-1.11629 -0.19029,-0.98172 v 0 c -0.25329,0.0497 -0.50658,0.0995 -0.75986,0.14925 -0.27646,0.0316 -0.55192,0.0738 -0.82938,0.0948 -0.17599,0.0134 -0.35726,-0.0306 -0.52941,0.008 -0.0641,0.0145 -0.0741,0.12212 -0.1367,0.14213 -0.0369,0.0118 -0.1021,-0.0306 -0.0938,-0.0685 0.0567,-0.25911 0.46145,-0.78381 0.574,-0.94599 0.22113,-0.34906 0.62874,-0.87471 0.62451,-1.33111 -0.011,-1.18168 -1.12991,-1.13725 -1.8375,-0.64285 -0.52997,0.46812 0.13205,1.2176 0.66202,0.74948 z" />
      <path
         style="fill:#000000;stroke:none;stroke-width:0.79375;stroke-linecap:round;stroke-linejoin:round"
         id="path40"
         d="m 130.28471,126.68896 c -0.14202,3.20709 -0.0987,6.42035 -0.0681,9.62967 0.005,0.33062 0.01,0.66125 0.0149,0.99187 0.0106,0.70703 1.01051,0.69201 0.99989,-0.015 v 0 c -0.005,-0.32879 -0.01,-0.65758 -0.0148,-0.98637 -0.0302,-3.17703 -0.0724,-6.35781 0.0643,-9.53276 0.0618,-0.7044 -0.93438,-0.79179 -0.99617,-0.0874 z" />
      <path
         style="fill:#000000;stroke:none;stroke-width:0.79375;stroke-linecap:round;stroke-linejoin:round"
         id="path41"
         d="m 130.81215,126.57357 c 0.21612,-0.21248 0.42759,-0.46447 0.73734,-0.553 0.4671,-0.13349 1.11736,0.0477 1.33215,0.51141 0.0576,0.12444 0.0445,0.27064 0.0668,0.40597 -0.16659,0.79339 -0.76526,1.29221 -1.5398,1.43771 -0.68796,0.16341 -0.45687,1.13634 0.23109,0.97293 v 0 c 0.18254,-0.0486 0.37339,-0.0728 0.54762,-0.14576 0.72543,-0.30391 1.38893,-0.90873 1.62412,-1.68231 0.0869,-0.28585 0.0586,-0.59467 0.0879,-0.89201 -0.11142,-0.2755 -0.15714,-0.58787 -0.33425,-0.82651 -0.58864,-0.79314 -1.67784,-0.95134 -2.55789,-0.62163 -0.52432,0.19644 -0.7631,0.57372 -1.10213,0.97219 -0.29769,0.64139 0.60937,1.06239 0.90706,0.42101 z" />
      <path
         style="fill:#000000;stroke:none;stroke-width:0.79375;stroke-linecap:round;stroke-linejoin:round"
         id="path42"
         d="m 134.58898,128.80743 c 0.3045,-0.0536 1.9425,-0.2172 2.03859,0.21016 0.0144,0.0638 -0.13505,0.0242 -0.1845,0.067 -0.0794,0.0688 -0.12425,0.16961 -0.18637,0.25441 -0.46099,0.60806 -1.13739,1.32143 -0.34294,2.02546 0.18818,0.16676 0.9616,0.35078 1.20911,0.41804 0.19829,0.08 0.55297,0.1771 0.70934,0.37308 0.0175,0.022 -0.065,0.0461 -0.081,0.023 -0.0571,-0.0823 -0.0283,-0.21334 -0.0998,-0.28356 -0.0709,-0.0696 -0.76285,-0.0326 -0.78211,-0.0324 -0.45537,-0.0762 -1.43478,-0.0614 -1.80029,-0.40047 -0.0112,-0.0104 0.0322,-0.0262 0.0431,-0.0155 0.0424,0.0413 0.0633,0.0999 0.0949,0.14989 -0.0399,-0.70598 -1.03829,-0.64957 -0.99841,0.0564 v 0 c 0.0364,0.1337 0.0416,0.28009 0.10911,0.40111 0.40841,0.7326 1.89828,0.71884 2.5865,0.80799 0.43347,-0.0221 1.16763,0.0234 1.52356,-0.33679 0.84996,-0.86002 -0.40155,-1.51351 -1.04419,-1.70821 -0.0121,-0.003 -0.71839,-0.21061 -0.78253,-0.17898 -0.0653,0.0322 -0.0202,0.15646 -0.074,0.20554 -0.0261,0.0238 -0.0627,-0.0626 -0.0477,-0.0945 0.174,-0.37031 0.54335,-0.6286 0.69466,-1.01197 0.0871,-0.25897 0.26682,-0.50375 0.2613,-0.77692 -0.0316,-1.56467 -2.12129,-1.25468 -3.10886,-1.11775 -0.68231,0.18564 -0.41977,1.15056 0.26253,0.96492 z" />
      <g
         id="g49"
         transform="rotate(3.4898888,578.61417,1102.842)">
        <path
           style="fill:#000000;stroke:none;stroke-width:0.79375;stroke-linecap:round;stroke-linejoin:round"
           id="path47"
           d="m 74.585927,193.78618 c 4.364069,-0.22368 8.687829,-0.91678 13.014661,-1.49631 1.980459,-0.18102 1.112985,-0.13899 2.599526,-0.1759 0.706866,-0.0184 0.680894,-1.01803 -0.02598,-0.99966 v 0 c -1.565717,0.0424 -0.662684,-0.003 -2.706307,0.18441 -4.290324,0.57464 -8.577453,1.26193 -12.904398,1.48771 -0.706927,0.0159 -0.684435,1.01565 0.02249,0.99975 z" />
        <path
           style="fill:#000000;stroke:none;stroke-width:0.79375;stroke-linecap:round;stroke-linejoin:round"
           id="path48"
           d="m 90.913706,188.74139 c 0.26063,1.56069 0.487362,3.12637 0.704037,4.69372 0.0186,0.13644 0.03722,0.27288 0.05583,0.40932 0.09557,0.70062 1.086389,0.56547 0.990825,-0.13515 v 0 c -0.01871,-0.13704 -0.03739,-0.27408 -0.05608,-0.41112 -0.216347,-1.56489 -0.442111,-3.12825 -0.703053,-4.68639 -0.09166,-0.70114 -1.083218,-0.57152 -0.991563,0.12962 z" />
        <path
           style="fill:#000000;stroke:none;stroke-width:0.79375;stroke-linecap:round;stroke-linejoin:round"
           id="path49"
           d="m 90.649474,189.17193 c 2.068907,0.71133 4.206462,1.20229 6.321346,1.75605 0.191928,0.0612 0.386741,0.11408 0.575791,0.1837 0.170225,0.0627 -0.371395,-0.17007 -0.53603,-0.0939 -0.227557,0.10527 -0.40881,0.29093 -0.621575,0.42358 -0.758399,0.47283 -1.197591,0.68998 -1.989188,1.11269 -0.628179,0.32701 -1.267065,0.6322 -1.912746,0.92272 -0.644758,0.29033 -0.234181,1.20215 0.410577,0.91183 v 0 c 0.66611,-0.30015 1.325547,-0.61471 1.973533,-0.95261 0.711628,-0.38066 1.414925,-0.73786 2.093663,-1.17706 0.433904,-0.28078 1.240661,-0.77113 1.282655,-1.40765 0.01754,-0.2657 -0.197146,-0.51781 -0.398004,-0.69262 -0.164944,-0.14355 -0.41692,-0.13203 -0.625377,-0.19805 -2.07013,-0.54204 -4.161312,-1.0248 -6.18947,-1.71152 -0.652547,-0.27236 -1.037725,0.65049 -0.385175,0.92285 z" />
      </g>
      <g
         id="g52"
         transform="rotate(-177.02397,95.953313,178.71537)">
        <path
           style="fill:#000000;stroke:none;stroke-width:0.79375;stroke-linecap:round;stroke-linejoin:round"
           id="path50"
           d="m 74.585927,193.78618 c 4.364069,-0.22368 8.687829,-0.91678 13.014661,-1.49631 1.980459,-0.18102 1.112985,-0.13899 2.599526,-0.1759 0.706866,-0.0184 0.680894,-1.01803 -0.02598,-0.99966 v 0 c -1.565717,0.0424 -0.662684,-0.003 -2.706307,0.18441 -4.290324,0.57464 -8.577453,1.26193 -12.904398,1.48771 -0.706927,0.0159 -0.684435,1.01565 0.02249,0.99975 z" />
        <path
           style="fill:#000000;stroke:none;stroke-width:0.79375;stroke-linecap:round;stroke-linejoin:round"
           id="path51"
           d="m 90.913706,188.74139 c 0.26063,1.56069 0.487362,3.12637 0.704037,4.69372 0.0186,0.13644 0.03722,0.27288 0.05583,0.40932 0.09557,0.70062 1.086389,0.56547 0.990825,-0.13515 v 0 c -0.01871,-0.13704 -0.03739,-0.27408 -0.05608,-0.41112 -0.216347,-1.56489 -0.442111,-3.12825 -0.703053,-4.68639 -0.09166,-0.70114 -1.083218,-0.57152 -0.991563,0.12962 z" />
        <path
           style="fill:#000000;stroke:none;stroke-width:0.79375;stroke-linecap:round;stroke-linejoin:round"
           id="path52"
           d="m 90.649474,189.17193 c 2.068907,0.71133 4.206462,1.20229 6.321346,1.75605 0.191928,0.0612 0.386741,0.11408 0.575791,0.1837 0.170225,0.0627 -0.371395,-0.17007 -0.53603,-0.0939 -0.227557,0.10527 -0.40881,0.29093 -0.621575,0.42358 -0.758399,0.47283 -1.197591,0.68998 -1.989188,1.11269 -0.628179,0.32701 -1.267065,0.6322 -1.912746,0.92272 -0.644758,0.29033 -0.234181,1.20215 0.410577,0.91183 v 0 c 0.66611,-0.30015 1.325547,-0.61471 1.973533,-0.95261 0.711628,-0.38066 1.414925,-0.73786 2.093663,-1.17706 0.433904,-0.28078 1.240661,-0.77113 1.282655,-1.40765 0.01754,-0.2657 -0.197146,-0.51781 -0.398004,-0.69262 -0.164944,-0.14355 -0.41692,-0.13203 -0.625377,-0.19805 -2.07013,-0.54204 -4.161312,-1.0248 -6.18947,-1.71152 -0.652547,-0.27236 -1.037725,0.65049 -0.385175,0.92285 z" />
      </g>
      <path
         style="fill:#000000;stroke-width:1;stroke-linecap:round;stroke-linejoin:round"
         id="path27"
         d="m 72.22936,176.32813 c 0.309599,1.17531 0.702341,2.32655 1.002643,3.50442 0.01109,0.0542 -0.01603,0.18802 0.03324,0.16276 0.311762,-0.15982 0.673717,-0.31431 0.85139,-0.61625 0.100235,-0.17034 -0.105021,-0.38115 -0.151437,-0.57326 -0.161391,-0.66802 -0.258733,-1.29896 -0.271735,-1.98501 0.03706,-0.12666 0.04509,-0.26576 0.111186,-0.37998 0.215982,-0.37324 1.286838,-0.007 1.564952,0.11007 0.06578,0.0433 0.131548,0.0867 0.197324,0.13001 0.602895,0.36949 1.125423,-0.48313 0.522528,-0.85262 v 0 c -0.118298,-0.0695 -0.236599,-0.13894 -0.354896,-0.20841 -0.987534,-0.36921 -2.354075,-0.62745 -2.901194,0.58302 -0.09043,0.20007 -0.09305,0.42913 -0.139567,0.6437 0.02408,0.76549 0.12347,1.4702 0.304802,2.21551 0.0504,0.20715 -0.0195,0.51029 0.164449,0.61808 0.312645,0.18322 0.720479,0.14502 1.081345,0.11198 0.07021,-0.006 -0.02898,-0.13799 -0.04347,-0.20699 -0.299953,-1.17319 -0.687459,-2.32103 -0.999297,-3.49091 -0.16538,-0.6875 -1.137645,-0.45361 -0.972263,0.23388 z" />
      <path
         style="fill:#000000;stroke-width:1;stroke-linecap:round;stroke-linejoin:round"
         id="path30"
         d="m 77.448329,178.06928 c 0.59494,-0.13337 2.345383,-0.32725 1.921082,-1.40377 -0.07994,-0.20282 -0.349539,-0.26062 -0.524309,-0.39092 -0.812634,-0.19601 -1.714273,-0.12552 -2.242699,0.61171 -0.09906,0.13821 -0.155352,0.30254 -0.233029,0.4538 -0.03332,0.16947 -0.09998,0.33569 -0.09998,0.5084 2.9e-5,0.9149 0.672116,1.63047 1.496828,1.9301 0.228838,0.0831 0.474477,0.10948 0.711715,0.16422 1.089991,-0.0297 0.562259,0.0343 1.58463,-0.17969 0.690721,-0.15134 0.476697,-1.12817 -0.214024,-0.97683 v 0 c -0.772147,0.17891 -0.38345,0.1203 -1.16581,0.17771 -0.673891,-0.1195 -1.488805,-0.35702 -1.406231,-1.20305 0.212105,-0.59067 0.568404,-0.63791 1.163783,-0.57197 -0.0053,-0.34983 -0.02445,-0.01 0.202681,-0.57589 0.01418,-0.0353 -0.04049,0.0684 -0.07341,0.0876 -0.10006,0.0583 -0.208793,0.10122 -0.317802,0.14029 -0.366559,0.13137 -0.543242,0.15512 -0.923888,0.23561 -0.701958,0.0852 -0.581501,1.0779 0.120457,0.99272 z" />
      <path
         style="fill:#000000;stroke-width:1;stroke-linecap:round;stroke-linejoin:round"
         id="path43"
         d="m 82.30805,175.23706 c -0.199847,0.0585 -0.409389,0.0906 -0.599543,0.1755 -0.892122,0.39819 -2.021715,1.33023 -1.940179,2.43702 0.01852,0.25128 0.165116,0.4761 0.247674,0.71414 0.239998,0.16078 0.450482,0.37834 0.719995,0.48232 0.64003,0.24691 1.645451,0.12072 2.211236,-0.2706 0.51887,-0.35888 0.524526,-0.56522 0.7487,-1.09504 -0.211516,0.1946 0.264467,-0.96808 -0.02991,-0.90358 -0.35702,0.0782 -0.742905,0.2748 -0.922033,0.59339 -0.128296,0.22818 0.103831,0.51315 0.155586,0.76975 0.251155,1.24521 0.136445,0.63763 0.360042,1.92208 0.143031,1.02421 0.316182,2.05635 0.288827,3.09415 -0.01603,0.70692 0.983697,0.72961 0.999744,0.0227 v 0 c 0.02177,-1.10324 -0.142623,-2.19993 -0.303416,-3.28851 -0.220911,-1.26651 -0.119076,-0.7346 -0.365212,-1.94949 -0.04831,-0.23844 0.04518,-0.56469 -0.146053,-0.71508 -0.278532,-0.21905 -0.688012,-0.18126 -1.040448,-0.21802 -0.111185,-0.0116 0.362244,0.41269 0.06367,0.32927 -0.04219,0.17355 -0.06872,0.4008 -0.221692,0.52729 -0.442423,0.36583 -1.08902,0.30702 -1.615959,0.2699 -0.05354,-0.0481 -0.140509,-0.0753 -0.160631,-0.1444 -0.186637,-0.64116 0.758497,-1.39071 1.238086,-1.61965 0.147153,-0.0703 0.311401,-0.0969 0.467101,-0.14531 0.698497,-0.11001 0.542917,-1.09784 -0.155581,-0.98783 z" />
      <path
         style="fill:#000000;stroke-width:1;stroke-linecap:round;stroke-linejoin:round"
         id="path44"
         d="m 84.283617,177.19826 c -0.0199,0.82019 0.05282,1.788 0.719955,2.37467 0.150607,0.13244 0.325515,0.25694 0.521304,0.3004 0.221636,0.0492 0.453506,-0.0225 0.680259,-0.0337 0.19966,-0.1932 0.444601,-0.34861 0.59898,-0.5796 0.474964,-0.71068 0.356214,-1.67665 0.157715,-2.4465 -0.185674,-0.6823 -1.150583,-0.41972 -0.964911,0.26258 v 0 c 0.114017,0.38771 0.175493,0.75801 0.117856,1.16562 -0.01976,0.13984 -0.08046,0.27142 -0.104783,0.41054 -0.01191,0.068 -0.0021,0.13815 -0.0032,0.20723 -0.191592,0.46415 -0.601151,-0.44806 -0.633902,-0.55994 -0.04757,-0.16251 -0.0722,-0.33152 -0.09069,-0.49984 -0.0159,-0.14487 -0.0081,-0.29137 -0.0122,-0.43706 0.116252,-0.69748 -0.870141,-0.86189 -0.986394,-0.16441 z" />
      <path
         style="fill:#000000;stroke-width:1;stroke-linecap:round;stroke-linejoin:round"
         id="path45"
         d="m 88.468384,178.11539 c 0.751252,-0.19951 2.167649,-0.75667 1.638641,-1.82906 -0.09958,-0.20187 -0.342003,-0.29274 -0.513006,-0.43911 -0.205354,-0.037 -0.408659,-0.13402 -0.616064,-0.1111 -0.788641,0.0871 -1.283657,0.78312 -1.459796,1.49627 -0.05928,0.24 -0.130355,0.49903 -0.06874,0.73844 0.08106,0.31497 0.318482,0.56716 0.477724,0.85074 0.853038,0.65375 1.545997,0.65809 2.557888,0.60843 0.705721,-0.0442 0.643176,-1.04227 -0.06255,-0.99804 v 0 c -0.585782,0.0475 -1.147321,0.0877 -1.687806,-0.20021 -0.09577,-0.0656 -0.241525,-0.0901 -0.287322,-0.1967 -0.135604,-0.31579 0.120505,-1.12174 0.433985,-1.30361 0.05497,-0.0319 0.125175,-0.022 0.187762,-0.0331 0.034,-0.02 0.07211,-0.0341 0.10201,-0.0598 0.05545,-0.0476 0.07881,-0.16121 0.15185,-0.15821 0.05771,0.002 -0.02365,0.11849 -0.06175,0.16191 -0.242961,0.27695 -0.63215,0.38522 -0.967557,0.48853 -0.69623,0.12355 -0.521496,1.10817 0.174731,0.98461 z" />
      <path
         style="fill:#000000;stroke-width:1;stroke-linecap:round;stroke-linejoin:round"
         id="path46"
         d="m 86.587736,175.29423 c 0.489529,-0.51796 1.004882,-1.02189 1.596827,-1.42417 0.181059,-0.12304 0.358026,-0.2739 0.571042,-0.32436 0.145669,-0.0345 0.366548,0.32271 0.408995,0.37916 0.07513,0.11651 0.150249,0.23302 0.225375,0.34954 0.408969,0.57684 1.224746,-0.002 0.815774,-0.57837 v 0 c -0.136782,-0.18237 -0.273563,-0.36474 -0.410345,-0.54712 -0.226883,-0.15289 -0.418928,-0.37897 -0.680651,-0.45868 -0.274071,-0.0835 -0.581721,-0.0808 -0.859441,-0.0104 -0.257029,0.0651 -0.467783,0.25199 -0.686329,0.40215 -0.636963,0.43761 -1.19393,0.98105 -1.722326,1.54082 -0.474763,0.52403 0.266316,1.19544 0.741079,0.67142 z" />
      <path
         style="fill:#000000;stroke-width:1;stroke-linecap:round;stroke-linejoin:round"
         id="path53"
         d="m 90.192663,171.31677 c 0.421645,1.97936 1.106392,3.88684 1.652415,5.83227 0.175935,0.78331 0.115295,0.42854 0.202359,1.06061 0.09925,0.70011 1.08935,0.55975 0.9901,-0.14036 v 0 c -0.105765,-0.72872 -0.03482,-0.33079 -0.229714,-1.19065 -0.538967,-1.9176 -1.211744,-3.79839 -1.632683,-5.74826 -0.131792,-0.69471 -1.114269,-0.50833 -0.982477,0.18639 z" />
      <path
         style="fill:#000000;stroke-width:1;stroke-linecap:round;stroke-linejoin:round"
         id="path54"
         d="m 90.559804,175.66072 c 0.778983,-0.0635 1.555282,-0.15511 2.33181,-0.24264 0.702656,-0.0792 0.590629,-1.07292 -0.112027,-0.99371 v 0 c -0.759196,0.0856 -1.518164,0.17508 -2.279672,0.23815 -0.705836,0.0423 -0.645948,1.04055 0.05989,0.9982 z" />
      <path
         style="fill:#000000;stroke-width:1;stroke-linecap:round;stroke-linejoin:round"
         id="path55"
         d="m 95.291906,176.80651 c 0.553228,-0.0379 2.984561,-0.53861 1.992122,-1.64812 -0.180819,-0.20215 -0.527145,-0.12791 -0.790718,-0.19186 -0.79651,0.23229 -1.519931,0.63413 -1.715818,1.52612 -0.06132,0.27924 -0.06453,0.58568 0.02461,0.85733 0.097,0.29565 0.269327,0.58615 0.512638,0.78011 0.308057,0.24557 0.717925,0.32466 1.076886,0.48699 1.386871,0.28479 2.744766,0.11838 4.072074,-0.31643 0.67052,-0.2245 0.35304,-1.17276 -0.31749,-0.94827 v 0 c -1.099514,0.37799 -2.240295,0.51664 -3.398429,0.33027 -0.343432,-0.0902 -0.736639,-0.0928 -0.950531,-0.43105 -0.362654,-0.57347 0.222483,-1.06692 0.682746,-1.28516 0.04496,-0.32449 0.01643,-0.19309 0.179171,-0.66785 0.0092,-0.0268 0.0084,0.0687 -0.0158,0.0834 -0.129037,0.0787 -0.273843,0.12921 -0.41616,0.18015 -0.469154,0.16794 -0.56936,0.16516 -1.053732,0.2514 -0.70213,0.0838 -0.583695,1.07671 0.118435,0.99296 z" />
      <path
         style="fill:#000000;stroke-width:1;stroke-linecap:round;stroke-linejoin:round"
         id="path56"
         d="m 136.84248,175.95935 c -0.0423,1.89692 0.2439,3.77323 0.81642,5.57785 0.29725,0.68034 0.13876,0.38369 0.45161,0.90226 0.37238,0.60111 1.22248,0.0745 0.8501,-0.52663 v 0 c -0.23421,-0.36337 -0.10752,-0.1424 -0.34907,-0.67974 -0.54669,-1.70091 -0.80684,-3.47395 -0.76912,-5.26295 0.008,-0.70707 -0.99231,-0.71786 -0.99994,-0.0108 z" />
      <path
         style="fill:#000000;stroke-width:1;stroke-linecap:round;stroke-linejoin:round"
         id="path57"
         d="m 135.86202,175.7589 c 1.11667,-0.0223 2.30005,-0.0597 3.37841,0.29256 0.60096,0.19633 0.57657,0.15696 0.32057,0.31451 -0.0719,-0.002 -0.14825,-0.0316 -0.21563,-0.006 -0.15562,0.058 -0.28438,0.17216 -0.43218,0.24788 -0.49759,0.25491 -0.56181,0.26211 -1.05933,0.44298 -0.66356,0.2443 -0.31807,1.18272 0.3455,0.93842 v 0 c 0.60321,-0.22445 1.58791,-0.55803 1.98503,-1.08519 0.18183,-0.24136 0.21879,-0.56338 0.32818,-0.84507 -0.12942,-0.22805 -0.19632,-0.50551 -0.38827,-0.68415 -0.28274,-0.26314 -1.22278,-0.4376 -1.53457,-0.48757 -0.95953,-0.15379 -1.93877,-0.18387 -2.90679,-0.11174 -0.69567,0.12663 -0.5166,1.11046 0.17908,0.98384 z" />
      <path
         style="fill:#000000;stroke-width:1;stroke-linecap:round;stroke-linejoin:round"
         id="path58"
         d="m 143.24281,174.5383 c -0.86944,0.33937 -2.38301,1.41126 -1.78342,2.552 0.11795,0.22438 0.35985,0.35713 0.53978,0.5357 0.25663,0.0734 0.50498,0.18756 0.76989,0.22023 0.915,0.11284 2.14844,-0.31066 2.38296,-1.31712 0.0545,-0.23398 -0.016,-0.48023 -0.0241,-0.72034 -0.39574,-0.88183 -0.92554,-1.19039 -1.84256,-1.32619 -0.70252,-0.0803 -0.81615,0.91318 -0.11362,0.99352 v 0 c 0.38932,0.0169 0.7113,0.1498 0.96434,0.46009 0.0316,0.068 0.085,0.12958 0.0947,0.2039 0.0893,0.68858 -1.18945,0.77121 -1.62328,0.69223 -0.99737,-0.11789 0.5996,-1.29318 0.93575,-1.34022 0.67444,-0.21244 0.374,-1.16624 -0.30044,-0.9538 z" />
      <path
         style="fill:#000000;stroke-width:1;stroke-linecap:round;stroke-linejoin:round"
         id="path59"
         d="m 145.11205,174.90608 c 10e-4,0.83566 0.31991,1.56238 0.92656,2.14308 0.18063,0.1729 0.40754,0.28981 0.61131,0.43471 0.586,0.39574 1.14566,-0.43299 0.55966,-0.82873 v 0 c -0.72534,-0.45121 -1.07289,-0.83294 -1.09775,-1.7279 0.015,-0.70695 -0.98481,-0.72811 -0.99978,-0.0212 z" />
      <path
         style="fill:#000000;stroke-width:1;stroke-linecap:round;stroke-linejoin:round"
         id="path60"
         d="m 144.1115,174.05815 c 0.74666,0.0465 1.49429,0.0739 2.24178,0.10281 0.70658,0.0273 0.7452,-0.97194 0.0386,-0.99925 v 0 c -0.73711,-0.0285 -1.47436,-0.0555 -2.21067,-0.10113 -0.70539,-0.0493 -0.77512,0.94826 -0.0697,0.99757 z" />
      <path
         style="fill:#000000;stroke-width:1;stroke-linecap:round;stroke-linejoin:round"
         id="path61"
         d="m 147.93906,175.14785 c 0.0578,0.43659 -0.0138,1.23759 0.18116,1.63651 0.0551,0.11279 0.0965,0.33941 0.2178,0.30724 0.3228,-0.0856 0.54396,-0.38758 0.81595,-0.58137 0.037,-0.3901 -0.2694,-1.28545 -0.0816,-1.61569 0.0198,-0.0348 0.0798,-0.007 0.11933,-0.0134 0.0719,-0.0114 0.14322,-0.0263 0.21483,-0.0394 0.92212,-0.11193 1.2688,0.71357 1.35089,1.48901 -0.003,0.10219 -0.007,0.20439 -0.0105,0.30659 -0.0112,0.70702 0.98862,0.72292 0.99987,0.0159 v 0 c 5.3e-4,-0.15198 0.001,-0.30396 0.002,-0.45594 -0.0291,-0.18984 -0.0369,-0.38421 -0.0873,-0.56952 -0.26004,-0.95488 -0.97777,-1.74687 -2.0181,-1.79596 -0.21493,-0.0101 -0.42572,0.0629 -0.63857,0.0943 -0.19151,0.10239 -0.41428,0.16061 -0.57452,0.30717 -0.6509,0.59534 -0.33159,1.50442 -0.27568,2.25255 1.76549,-0.38767 0.38601,-0.35486 0.93747,0.0615 0.0475,0.0359 -0.0338,-0.11441 -0.0446,-0.17297 -0.075,-0.40839 -0.0981,-0.8249 -0.10819,-1.23918 -0.009,-0.70705 -1.00885,-0.69442 -0.99992,0.0126 z" />
      <path
         style="fill:#000000;stroke-width:1;stroke-linecap:round;stroke-linejoin:round"
         id="path62"
         d="m 151.94888,170.19339 c 0.25177,2.10456 0.24767,4.23059 0.4783,6.33593 0.0344,0.16575 0.0688,0.33151 0.10321,0.49726 0.14707,0.69164 1.1252,0.48365 0.97813,-0.20799 v 0 c -0.0291,-0.133 -0.0583,-0.266 -0.0874,-0.399 -0.23389,-2.10143 -0.22134,-4.22521 -0.47724,-6.32588 -0.0705,-0.70358 -1.0655,-0.6039 -0.99502,0.0997 z" />
      <path
         style="fill:#000000;stroke-width:1;stroke-linecap:round;stroke-linejoin:round"
         id="path63"
         d="m 150.7618,174.19165 c 0.93882,0.0721 1.87654,0.15642 2.81375,0.24675 0.70384,0.0678 0.79977,-0.92756 0.0959,-0.99538 v 0 c -0.93893,-0.0905 -1.87836,-0.17512 -2.81891,-0.24725 -0.70418,-0.0642 -0.79494,0.9317 -0.0908,0.99588 z" />
      <path
         style="fill:#000000;stroke-width:1;stroke-linecap:round;stroke-linejoin:round"
         id="path64"
         d="m 156.31393,173.86636 c -0.82852,0.0318 -1.65289,0.37441 -1.02363,1.38237 0.0939,0.15036 0.80038,0.65564 0.94003,0.75941 0.18996,0.16058 0.4834,0.37165 0.62195,0.60181 0.0199,0.033 0.041,0.12195 0.003,0.11548 -0.051,-0.009 -0.0551,-0.0875 -0.0853,-0.12951 -0.14329,-0.19931 -0.0746,-0.10641 -0.43529,-0.0676 -0.38974,0.027 -0.77782,-0.004 -1.16469,-0.047 -0.70305,-0.0756 -0.80995,0.91868 -0.10689,0.99427 v 0 c 0.47598,0.05 0.95297,0.0863 1.4318,0.0398 0.46308,-0.0897 0.88842,-0.0834 1.19886,-0.53659 0.48832,-0.71288 -0.41628,-1.40466 -0.8677,-1.77382 -0.14777,-0.10941 -0.29463,-0.22005 -0.44331,-0.32822 -0.0864,-0.0628 -0.15499,-0.1859 -0.2618,-0.18477 -0.0737,7.9e-4 -0.0587,0.14115 -0.11493,0.18875 -0.35272,0.29863 -0.29402,-0.0222 0.34338,-0.015 0.70666,-0.0251 0.67115,-1.02447 -0.0355,-0.99937 z" />
      <path
         style="fill:#000000;stroke-width:1;stroke-linecap:round;stroke-linejoin:round"
         id="path65"
         d="m 164.50715,173.37496 c -0.9723,0.14758 -2.39782,0.51868 -2.81737,1.55086 -0.1001,0.24627 -0.15642,0.53728 -0.084,0.79306 0.0796,0.28132 0.34023,0.47555 0.51035,0.71332 1.08467,0.41241 0.53252,0.30325 1.65261,0.34627 0.70703,0.0103 0.72164,-0.98956 0.0146,-0.99989 v 0 c -0.68615,0.0145 -0.36761,0.0391 -0.95714,-0.0505 -0.0735,-0.008 -0.16021,0.019 -0.22054,-0.0238 -0.23856,-0.16904 0.012,-0.47485 0.13087,-0.59022 0.2994,-0.29057 0.81412,-0.51328 1.20375,-0.62683 0.19845,-0.0578 0.40647,-0.0755 0.6097,-0.11323 0.70646,-0.0303 0.66365,-1.02936 -0.0428,-0.99908 z" />
      <path
         style="fill:#000000;stroke-width:1;stroke-linecap:round;stroke-linejoin:round"
         id="path66"
         d="m 164.04955,171.32536 c -0.10237,1.39662 -0.19025,2.84972 0.33706,4.17933 0.0747,0.18847 0.18451,0.36108 0.27677,0.54162 0.32908,0.62587 1.21419,0.16048 0.88511,-0.46538 v 0 c -0.71204,-1.30287 -0.61544,-2.74375 -0.50173,-4.18098 0.0527,-0.70514 -0.94448,-0.77972 -0.99721,-0.0746 z" />
      <path
         style="fill:#000000;stroke-width:1;stroke-linecap:round;stroke-linejoin:round"
         id="path67"
         d="m 167.09282,175.43433 c 0.60879,-0.0159 2.20298,-0.15774 2.01672,-1.14996 -0.0413,-0.22019 -0.24821,-0.37303 -0.37231,-0.55955 -0.17606,-0.083 -0.34044,-0.19765 -0.52817,-0.2491 -0.78929,-0.2163 -1.92608,0.0604 -2.2616,0.90288 -0.0922,0.23156 -0.0658,0.49414 -0.0986,0.74121 0.1035,0.23622 0.15554,0.5025 0.3105,0.70865 0.83478,1.11047 2.62243,1.10896 3.85772,1.02799 0.70539,-0.0492 0.63586,-1.04674 -0.0695,-0.99758 v 0 c -1.03948,0.0776 -2.33983,0.12536 -3.09892,-0.7171 -0.026,-0.0651 -0.0852,-0.12553 -0.0781,-0.19525 0.0562,-0.54606 0.89934,-0.62065 1.28946,-0.48592 0.0489,-0.16905 0.0356,-0.22581 0.21067,-0.33338 0.0282,-0.0173 -0.015,0.0717 -0.0429,0.0894 -0.0853,0.0544 -0.18254,0.0898 -0.28005,0.1165 -0.30102,0.0825 -0.53429,0.0814 -0.84355,0.10124 -0.70706,-0.008 -0.71844,0.99188 -0.0114,0.99993 z" />
      <path
         style="fill:#000000;stroke-width:1;stroke-linecap:round;stroke-linejoin:round"
         id="path68"
         d="m 177.51893,173.35427 c -0.69637,0.16602 -2.17638,0.28766 -2.20369,1.31242 -0.021,0.78694 0.52148,0.95212 1.04401,1.30442 0.29342,0.0852 0.58684,0.17037 0.88026,0.25556 0.68285,0.18365 0.94257,-0.78204 0.25972,-0.96569 v 0 c -0.21059,-0.0504 -0.42119,-0.10074 -0.63178,-0.15111 -0.13174,-0.0574 -0.26349,-0.11473 -0.39523,-0.1721 -0.0664,0.006 -0.13438,0.0319 -0.19925,0.0166 -0.0503,-0.0119 -0.15781,-0.0536 -0.12412,-0.0927 0.29458,-0.34229 1.09594,-0.40607 1.49633,-0.51534 0.70145,-0.0893 0.57519,-1.08127 -0.12625,-0.992 z" />
      <path
         style="fill:#000000;stroke-width:1;stroke-linecap:round;stroke-linejoin:round"
         id="path69"
         d="m 180.86348,173.26844 c -0.43063,0.0302 -0.77599,0.0259 -1.19295,0.18666 -0.61455,0.23687 -1.52839,0.83314 -1.32159,1.65743 0.074,0.29502 0.35199,0.49613 0.52798,0.7442 0.26623,0.10424 0.51891,0.25388 0.7987,0.31271 0.84227,0.17711 2.19854,-0.11407 2.4943,-1.06548 0.0674,-0.21693 0.009,-0.45426 0.0134,-0.68139 -0.14453,-0.20633 -0.28907,-0.41266 -0.4336,-0.619 -0.47452,-0.52424 -1.21591,0.14683 -0.74139,0.67108 v 0 c 0.0604,0.0201 0.12089,0.0402 0.18133,0.0603 0.57637,0.52887 -1.42167,0.88548 -1.61601,0.60441 -0.41642,0.0228 -0.45302,-0.13154 -0.0788,-0.45646 0.28683,-0.24903 0.52877,-0.3153 0.89643,-0.37895 0.14343,-0.0249 0.29013,-0.0242 0.43519,-0.0362 0.70663,0.0261 0.74358,-0.97319 0.037,-0.99931 z" />
      <path
         style="fill:#000000;stroke-width:1;stroke-linecap:round;stroke-linejoin:round"
         id="path70"
         d="m 181.43254,174.45128 c -0.007,0.23218 0.099,2.15949 0.68444,1.97976 0.28106,-0.0863 0.42054,-0.41099 0.63082,-0.61649 -0.0118,-0.55266 -0.30028,-1.08009 -0.27365,-1.63578 0.011,-0.22947 0.035,-0.18228 0.13831,-0.12589 0.65552,0.12149 1.45432,0.17039 1.76265,0.87419 0.0513,0.11717 0.066,0.2472 0.0989,0.37081 0.0199,0.45682 0.0276,0.23842 -0.0147,0.65544 -0.0557,0.70491 0.94117,0.7837 0.99689,0.0788 v 0 c 0.0426,-0.66044 0.0466,-0.30844 -0.0352,-1.05547 -0.0827,-0.21753 -0.1295,-0.4524 -0.24821,-0.65258 -0.4916,-0.82902 -1.59654,-1.32384 -2.55185,-1.20874 -0.2437,0.0294 -0.46886,0.14554 -0.70329,0.21832 -0.12146,0.15761 -0.28053,0.29238 -0.3644,0.47284 -0.25768,0.55443 0.10579,1.38835 0.19594,1.95434 0.88766,-0.43252 0.36203,-0.41502 0.88846,-0.029 0.0333,0.0244 -0.0442,-0.0707 -0.0564,-0.11003 -0.11033,-0.35303 -0.14518,-0.72729 -0.15157,-1.09502 0.0534,-0.70508 -0.94372,-0.78063 -0.99714,-0.0755 z" />
      <path
         style="fill:#000000;stroke-width:1;stroke-linecap:round;stroke-linejoin:round"
         id="path71"
         d="m 185.62224,170.01366 c 0.069,1.92731 0.0683,3.86104 0.37342,5.76932 0.11256,0.69809 1.09981,0.53891 0.98725,-0.15918 v 0 c -0.30267,-1.86053 -0.28745,-3.74859 -0.36082,-5.62777 -0.0125,-0.707 -1.01231,-0.68937 -0.99985,0.0176 z" />
      <path
         style="fill:#000000;stroke-width:1;stroke-linecap:round;stroke-linejoin:round"
         id="path72"
         d="m 184.93815,174.16806 c 0.72057,-0.0335 1.44143,-0.0294 2.16237,-0.0188 0.70703,0.0103 0.72158,-0.98961 0.0146,-0.99989 v 0 c -0.73868,-0.0106 -1.47729,-0.015 -2.21559,0.0194 -0.70658,0.0273 -0.6679,1.0266 0.0387,0.99925 z" />
      <path
         style="fill:#000000;stroke-width:1;stroke-linecap:round;stroke-linejoin:round"
         id="path73"
         d="m 188.71868,173.93601 c 0.0423,0.49433 0.16699,0.97589 0.33323,1.442 0.0395,0.11062 0.0891,0.21735 0.13133,0.32696 0.0147,0.0382 0.006,0.14019 0.0393,0.11629 0.26656,-0.19173 0.48364,-0.44425 0.72547,-0.66638 -0.34769,-0.66914 -0.58191,-0.94717 0.19624,-1.27329 0.26779,-0.0824 0.49904,-0.0836 0.7531,0.0217 0.67918,0.19676 0.95744,-0.76375 0.27826,-0.96051 v 0 c -0.53463,-0.13027 -0.9904,-0.16066 -1.51676,0.0645 -0.17326,0.10758 -0.37006,0.18427 -0.51978,0.32275 -0.75589,0.69912 -0.48089,1.65629 -0.001,2.41129 0.34333,-0.0819 0.70504,-0.10797 1.02998,-0.24581 0.0541,-0.0229 -0.0369,-0.11165 -0.0581,-0.16646 -0.17959,-0.46439 -0.35351,-0.93359 -0.39213,-1.43574 -0.0302,-0.70646 -1.02927,-0.66378 -0.99909,0.0427 z" />
      <path
         style="fill:#000000;stroke-width:1;stroke-linecap:round;stroke-linejoin:round"
         id="path74"
         d="m 193.08866,173.25391 c -0.67906,0.19622 -1.65895,0.61504 -1.74688,1.45169 -0.0224,0.21309 -0.0268,0.46677 0.10741,0.63375 0.20106,0.25008 0.54305,0.342 0.81458,0.513 0.29136,0.0383 0.58034,0.10646 0.87409,0.11475 0.88792,0.0251 2.24732,-0.29044 2.52306,-1.30708 0.0587,-0.21625 -0.002,-0.44813 -0.004,-0.67219 -0.16668,-0.20112 -0.33336,-0.40223 -0.50003,-0.60335 -0.52928,-0.4689 -1.1924,0.27962 -0.66312,0.74851 v 0 c 0.0576,-0.002 0.11512,-0.005 0.17269,-0.007 0.0339,0.0277 0.0953,0.0399 0.10156,0.0832 0.0563,0.39045 -0.6249,0.63761 -0.87101,0.69616 -0.21211,0.0504 -0.43252,0.0647 -0.65052,0.0681 -0.2036,0.003 -0.40598,-0.032 -0.60897,-0.0481 -0.18394,0.0645 -0.33885,0.1247 -0.35057,0.10571 -0.1819,-0.29496 0.70856,-0.73897 0.90353,-0.78207 0.7034,-0.0724 0.60109,-1.0671 -0.10231,-0.99476 z" />
      <path
         style="fill:#000000;stroke-width:1;stroke-linecap:round;stroke-linejoin:round"
         id="path75"
         d="m 191.85664,171.82146 c 0.89558,-0.37443 1.18427,-0.0888 1.88466,0.47286 0.55725,0.43528 1.17283,-0.3528 0.61557,-0.78808 v 0 c -1.02325,-0.78346 -1.72764,-1.12902 -2.97717,-0.56371 -0.6215,0.33724 -0.14456,1.21618 0.47694,0.87893 z" />
      <path
         style="fill:#000000;stroke-width:1;stroke-linecap:round;stroke-linejoin:round"
         id="path76"
         d="m 195.90908,170.99263 c 1.08356,0.015 2.33203,-0.28819 2.82929,-1.3791 0.10356,-0.2272 0.11991,-0.48478 0.17986,-0.72717 -0.0591,-0.26798 -0.0667,-0.55283 -0.17739,-0.80393 -0.27887,-0.63246 -1.08928,-1.29484 -1.83317,-1.17931 -0.91167,0.1416 -1.01132,0.56206 -1.52707,1.23976 -0.13145,0.35738 -0.3102,0.70077 -0.39434,1.07215 -0.31898,1.40778 -0.21489,3.62293 0.41984,4.94456 0.12827,0.26709 0.32912,0.49281 0.49367,0.73922 0.21032,0.15696 0.39295,0.36031 0.63095,0.47087 0.92449,0.42948 1.97987,0.0321 2.69369,-0.59733 0.1582,-0.13951 0.28647,-0.30968 0.42971,-0.46452 0.45611,-0.65995 0.66224,-1.50887 -0.15094,-2.01561 -0.41463,-0.25838 -0.66589,-0.15942 -1.11028,-0.11521 -0.16828,0.0954 -0.36738,0.15004 -0.50486,0.28611 -0.5254,0.52002 -0.578,1.3504 -0.19732,1.96962 0.38471,0.62577 0.75622,0.71571 1.37653,1.05029 1.09692,0.32134 0.55971,0.21212 1.60744,0.34754 0.70196,0.0852 0.82247,-0.90749 0.12052,-0.99271 v 0 c -0.83365,-0.093 -0.40777,-0.0152 -1.27522,-0.24647 -0.18539,-0.0857 -0.38056,-0.15281 -0.55617,-0.25708 -0.38574,-0.22904 -0.77813,-0.76757 -0.40399,-1.17134 0.32822,-0.13189 0.007,-0.026 0.34289,-0.0711 0.0363,-0.005 0.0679,-0.0368 0.10447,-0.0341 0.2771,0.0202 -0.0936,0.56845 -0.097,0.58173 -0.3983,0.46235 -1.12384,1.12313 -1.81473,0.90494 -0.13815,-0.0436 -0.25058,-0.14547 -0.37588,-0.21821 -0.12323,-0.16567 -0.27667,-0.31267 -0.36967,-0.497 -0.56786,-1.12548 -0.65428,-3.06676 -0.41993,-4.2836 0.0554,-0.28761 0.18248,-0.55663 0.27373,-0.83495 0.0624,-0.1077 0.35397,-0.72047 0.58158,-0.81507 0.49065,-0.20395 1.01193,0.40358 1.15145,0.79898 -0.0115,0.1235 0.003,0.25237 -0.0346,0.37051 -0.25748,0.80454 -1.23572,0.93105 -1.94514,0.92867 -0.7063,-0.0339 -0.75424,0.96495 -0.048,0.99885 z" />
    </g>
  </g>
</svg>
